Single-Cycle/LR1_EE475_F21_2018-EE-062/dump.vcd
$date
	Tue Oct 19 18:15:28 2021
$end
$version
	Icarus Verilog
$end
$timescale
	1ps
$end
$scope module top $end
$var wire 1 ! clk $end
$var wire 1 " rst $end
$var wire 32 # x9 [31:0] $end
$var wire 32 $ x8 [31:0] $end
$var wire 32 % x7 [31:0] $end
$var wire 32 & x6 [31:0] $end
$var wire 32 ' x5 [31:0] $end
$var wire 32 ( x4 [31:0] $end
$var wire 32 ) x31 [31:0] $end
$var wire 32 * x30 [31:0] $end
$var wire 32 + x3 [31:0] $end
$var wire 32 , x29 [31:0] $end
$var wire 32 - x28 [31:0] $end
$var wire 32 . x27 [31:0] $end
$var wire 32 / x26 [31:0] $end
$var wire 32 0 x25 [31:0] $end
$var wire 32 1 x24 [31:0] $end
$var wire 32 2 x23 [31:0] $end
$var wire 32 3 x22 [31:0] $end
$var wire 32 4 x21 [31:0] $end
$var wire 32 5 x20 [31:0] $end
$var wire 32 6 x2 [31:0] $end
$var wire 32 7 x19 [31:0] $end
$var wire 32 8 x18 [31:0] $end
$var wire 32 9 x17 [31:0] $end
$var wire 32 : x16 [31:0] $end
$var wire 32 ; x15 [31:0] $end
$var wire 32 < x14 [31:0] $end
$var wire 32 = x13 [31:0] $end
$var wire 32 > x12 [31:0] $end
$var wire 32 ? x11 [31:0] $end
$var wire 32 @ x10 [31:0] $end
$var wire 32 A x1 [31:0] $end
$var wire 32 B x0 [31:0] $end
$var wire 1 C wr_en $end
$var wire 2 D wb_sel [1:0] $end
$var wire 1 E unsign $end
$var wire 1 F sel_B $end
$var wire 1 G sel_A $end
$var wire 1 H reg_wr $end
$var wire 32 I rdata2 [31:0] $end
$var wire 32 J rdata1 [31:0] $end
$var wire 32 K rdata [31:0] $end
$var wire 1 L rd_en $end
$var wire 3 M br_type [2:0] $end
$var wire 1 N br_taken $end
$var wire 4 O alu_op [3:0] $end
$var wire 32 P PC [31:0] $end
$var wire 32 Q Instruction [31:0] $end
$var wire 32 R Immediate_Value [31:0] $end
$var wire 32 S ALU_out [31:0] $end
$var reg 32 T A [31:0] $end
$var reg 32 U B [31:0] $end
$var reg 32 V wdata [31:0] $end
$scope module al $end
$var wire 32 W A [31:0] $end
$var wire 32 X B [31:0] $end
$var wire 4 Y alu_op [3:0] $end
$var reg 32 Z ALU_out [31:0] $end
$upscope $end
$scope module bcond $end
$var wire 3 [ br_type [2:0] $end
$var wire 32 \ B [31:0] $end
$var wire 32 ] A [31:0] $end
$var reg 1 N br_taken $end
$upscope $end
$scope module cont $end
$var wire 7 ^ opcode [6:0] $end
$var wire 7 _ func7 [6:0] $end
$var wire 3 ` func3 [2:0] $end
$var wire 32 a Instruction [31:0] $end
$var reg 4 b alu_op [3:0] $end
$var reg 3 c br_type [2:0] $end
$var reg 1 L rd_en $end
$var reg 1 H reg_wr $end
$var reg 1 G sel_A $end
$var reg 1 F sel_B $end
$var reg 1 E unsign $end
$var reg 2 d wb_sel [1:0] $end
$var reg 1 C wr_en $end
$upscope $end
$scope module dmem $end
$var wire 32 e addr [31:0] $end
$var wire 1 ! clk $end
$var wire 1 L rd_en $end
$var wire 1 " rst $end
$var wire 1 C wr_en $end
$var wire 32 f wdata [31:0] $end
$var reg 32 g rdata [31:0] $end
$var integer 32 h i [31:0] $end
$upscope $end
$scope module ig $end
$var wire 1 E unsign $end
$var wire 7 i opcode [6:0] $end
$var wire 32 j Instruction [31:0] $end
$var reg 32 k Immediate_Value [31:0] $end
$upscope $end
$scope module im $end
$var wire 32 l Address [31:0] $end
$var reg 32 m Instruction [31:0] $end
$upscope $end
$scope module pc $end
$var wire 32 n ALU_out [31:0] $end
$var wire 1 o auipc $end
$var wire 1 N br_taken $end
$var wire 1 ! clk $end
$var wire 1 " rst $end
$var reg 32 p PC [31:0] $end
$upscope $end
$scope module rf $end
$var wire 1 ! clk $end
$var wire 5 q raddr1 [4:0] $end
$var wire 5 r raddr2 [4:0] $end
$var wire 1 H reg_wr $end
$var wire 1 " rst $end
$var wire 5 s waddr [4:0] $end
$var wire 32 t wdata [31:0] $end
$var reg 32 u rdata1 [31:0] $end
$var reg 32 v rdata2 [31:0] $end
$var reg 32 w x0 [31:0] $end
$var reg 32 x x1 [31:0] $end
$var reg 32 y x10 [31:0] $end
$var reg 32 z x11 [31:0] $end
$var reg 32 { x12 [31:0] $end
$var reg 32 | x13 [31:0] $end
$var reg 32 } x14 [31:0] $end
$var reg 32 ~ x15 [31:0] $end
$var reg 32 !" x16 [31:0] $end
$var reg 32 "" x17 [31:0] $end
$var reg 32 #" x18 [31:0] $end
$var reg 32 $" x19 [31:0] $end
$var reg 32 %" x2 [31:0] $end
$var reg 32 &" x20 [31:0] $end
$var reg 32 '" x21 [31:0] $end
$var reg 32 (" x22 [31:0] $end
$var reg 32 )" x23 [31:0] $end
$var reg 32 *" x24 [31:0] $end
$var reg 32 +" x25 [31:0] $end
$var reg 32 ," x26 [31:0] $end
$var reg 32 -" x27 [31:0] $end
$var reg 32 ." x28 [31:0] $end
$var reg 32 /" x29 [31:0] $end
$var reg 32 0" x3 [31:0] $end
$var reg 32 1" x30 [31:0] $end
$var reg 32 2" x31 [31:0] $end
$var reg 32 3" x4 [31:0] $end
$var reg 32 4" x5 [31:0] $end
$var reg 32 5" x6 [31:0] $end
$var reg 32 6" x7 [31:0] $end
$var reg 32 7" x8 [31:0] $end
$var reg 32 8" x9 [31:0] $end
$var integer 32 9" i [31:0] $end
$upscope $end
$upscope $end
$scope module top $end
$scope module al $end
$upscope $end
$scope module bcond $end
$upscope $end
$scope module cont $end
$upscope $end
$scope module dmem $end
$upscope $end
$scope module ig $end
$upscope $end
$scope module im $end
$upscope $end
$scope module pc $end
$upscope $end
$scope module rf $end
$upscope $end
$upscope $end
$scope module top $end
$scope module al $end
$upscope $end
$scope module bcond $end
$upscope $end
$scope module cont $end
$upscope $end
$scope module dmem $end
$upscope $end
$scope module ig $end
$upscope $end
$scope module im $end
$upscope $end
$scope module pc $end
$upscope $end
$scope module rf $end
$upscope $end
$upscope $end
$enddefinitions $end
#0
$dumpvars
bx 9"
bx 8"
bx 7"
bx 6"
bx 5"
bx 4"
bx 3"
bx 2"
bx 1"
bx 0"
bx /"
bx ."
bx -"
bx ,"
bx +"
bx *"
bx )"
bx ("
bx '"
bx &"
bx %"
bx $"
bx #"
bx ""
bx !"
bx ~
bx }
bx |
bx {
bx z
bx y
bx x
bx w
bx v
bx u
bx t
bx s
bx r
bx q
bx p
zo
bx n
bx m
bx l
b0 k
bx j
bx i
bx h
bx g
bx f
bx e
b0 d
b111 c
b0 b
bx a
bx `
bx _
bx ^
bx ]
bx \
b111 [
bx Z
b0 Y
bx X
bx W
bx V
bx U
bx T
bx S
b0 R
bx Q
bx P
b0 O
0N
b111 M
0L
bx K
bx J
bx I
0H
0G
0F
0E
b0 D
0C
bx B
bx A
bx @
bx ?
bx >
bx =
bx <
bx ;
bx :
bx 9
bx 8
bx 7
bx 6
bx 5
bx 4
bx 3
bx 2
bx 1
bx 0
bx /
bx .
bx -
bx ,
bx +
bx *
bx )
bx (
bx '
bx &
bx %
bx $
bx #
1"
1!
$end
#5000
0!
#10000
0"
b0 K
b0 g
b1111 S
b1111 Z
b1111 e
b1111 n
b0 T
b0 W
b1111 U
b1111 X
b1111 R
b1111 k
b0 I
b0 \
b0 f
b0 v
b0 J
b0 ]
b0 u
b1 D
b1 d
1L
1F
1H
b10011 i
b0 `
b0 _
b10011 ^
b1010 s
b1111 r
b1010 q
b1111 V
b1111 t
b111101010000010100010011 Q
b111101010000010100010011 a
b111101010000010100010011 j
b111101010000010100010011 m
b0 )
b0 2"
b0 *
b0 1"
b0 ,
b0 /"
b0 -
b0 ."
b0 .
b0 -"
b0 /
b0 ,"
b0 0
b0 +"
b0 1
b0 *"
b0 2
b0 )"
b0 3
b0 ("
b0 4
b0 '"
b0 5
b0 &"
b0 7
b0 $"
b0 8
b0 #"
b0 9
b0 ""
b0 :
b0 !"
b0 ;
b0 ~
b0 <
b0 }
b0 =
b0 |
b0 >
b0 {
b0 ?
b0 z
b0 @
b0 y
b0 #
b0 8"
b0 $
b0 7"
b0 %
b0 6"
b0 &
b0 5"
b0 '
b0 4"
b0 (
b0 3"
b0 +
b0 0"
b0 6
b0 %"
b0 A
b0 x
b0 B
b0 w
b0 P
b0 l
b0 p
b100000000 h
b100000 9"
1!
#15000
0!
#20000
b11110 V
b11110 t
b11110 U
b11110 X
b11110 S
b11110 Z
b11110 e
b11110 n
b0 T
b0 W
b11110 R
b11110 k
b1011 s
b11110 r
b1011 q
b1111 @
b1111 y
b0 J
b0 ]
b0 u
b1111001011000010110010011 Q
b1111001011000010110010011 a
b1111001011000010110010011 j
b1111001011000010110010011 m
b100 P
b100 l
b100 p
1!
#25000
0!
#30000
b0 V
b0 t
b0 U
b0 X
b0 S
b0 Z
b0 e
b0 n
b0 R
b0 k
b0 T
b0 W
b1100 s
b0 r
b1100 q
b1100000011000010011 Q
b1100000011000010011 a
b1100000011000010011 j
b1100000011000010011 m
b11110 ?
b11110 z
b0 J
b0 ]
b0 u
b1000 P
b1000 l
b1000 p
1!
#35000
0!
#40000
b1101 s
b1101 q
b1101000011010010011 Q
b1101000011010010011 a
b1101000011010010011 j
b1101000011010010011 m
b1100 P
b1100 l
b1100 p
1!
#45000
0!
#50000
b1 V
b1 t
b1 S
b1 Z
b1 e
b1 n
b1 U
b1 X
b1 R
b1 k
b1110 s
b1 r
b1110 q
b101110000011100010011 Q
b101110000011100010011 a
b101110000011100010011 j
b101110000011100010011 m
b10000 P
b10000 l
b10000 p
1!
#55000
0!
#60000
b11111 V
b11111 t
b11111 U
b11111 X
b11111 S
b11111 Z
b11111 e
b11111 n
b0 T
b0 W
b11111 R
b11111 k
b1111 s
b11111 r
b1111 q
b1 <
b1 }
b0 J
b0 ]
b0 u
b1111101111000011110010011 Q
b1111101111000011110010011 a
b1111101111000011110010011 j
b1111101111000011110010011 m
b10100 P
b10100 l
b10100 p
1!
#65000
0!
#70000
b111000 U
b111000 X
b1010000 S
b1010000 Z
b1010000 e
b1010000 n
0N
b11100 V
b11100 t
b111000 R
b111000 k
b11000 T
b11000 W
b1 M
b1 [
b1 c
1G
b0 D
b0 d
0L
1F
0H
b1100011 i
b1 `
b1 _
b1100011 ^
b11000 s
b1101 r
b1100 q
b10110101100001110001100011 Q
b10110101100001110001100011 a
b10110101100001110001100011 j
b10110101100001110001100011 m
b11111 ;
b11111 ~
b0 J
b0 ]
b0 u
b11000 P
b11000 l
b11000 p
1!
#75000
0!
#80000
bx K
bx g
b11110 U
b11110 X
b11110 I
b11110 \
b11110 f
b11110 v
b1111 J
b1111 ]
b1111 u
b0 R
b0 k
b111 O
b111 Y
b111 b
b1 D
b1 d
1L
1H
b111 M
b111 [
b111 c
0F
0G
b11111111111111111111111111110001 S
b11111111111111111111111111110001 Z
b11111111111111111111111111110001 e
b11111111111111111111111111110001 n
b110011 i
b0 `
b100000 _
b110011 ^
b10001 s
b1011 r
b1010 q
b1111 T
b1111 W
b11111111111111111111111111110001 V
b11111111111111111111111111110001 t
b1000000101101010000100010110011 Q
b1000000101101010000100010110011 a
b1000000101101010000100010110011 j
b1000000101101010000100010110011 m
b11100 P
b11100 l
b11100 p
1!
#85000
0!
#90000
b11111 U
b11111 X
b11111111111111111111111111110001 T
b11111111111111111111111111110001 W
b1 V
b1 t
b0 K
b0 g
b11111 I
b11111 \
b11111 f
b11111 v
b11111111111111111111111111110001 J
b11111111111111111111111111110001 ]
b11111111111111111111111111110001 u
b1 S
b1 Z
b1 e
b1 n
b1 D
b1 d
1L
1H
b11 O
b11 Y
b11 b
b101 `
b0 _
b1111 r
b10001 q
b111110001101100010110011 Q
b111110001101100010110011 a
b111110001101100010110011 j
b111110001101100010110011 m
b11111111111111111111111111110001 9
b11111111111111111111111111110001 ""
b100000 P
b100000 l
b100000 p
1!
#95000
0!
#100000
b1 U
b1 X
b0 V
b0 t
b0 K
b0 g
b1 I
b1 \
b1 f
b1 v
b1 T
b1 W
b0 S
b0 Z
b0 e
b0 n
b1 D
b1 d
1L
1H
b10 O
b10 Y
b10 b
b100 `
b1110 r
b1 9
b1 ""
b1 J
b1 ]
b1 u
b111010001100100010110011 Q
b111010001100100010110011 a
b111010001100100010110011 j
b111010001100100010110011 m
b100100 P
b100100 l
b100100 p
1!
#105000
0!
#110000
0N
b10100 U
b10100 X
b101100 V
b101100 t
b10100 R
b10100 k
b0 I
b0 \
b0 f
b0 v
b101000 T
b101000 W
b111100 S
b111100 Z
b111100 e
b111100 n
b1 M
b1 [
b1 c
1F
1G
b0 D
b0 d
0L
0H
b0 O
b0 Y
b0 b
b1100011 i
b1 `
b1100011 ^
b10100 s
b1101 r
b110110001001101001100011 Q
b110110001001101001100011 a
b110110001001101001100011 j
b110110001001101001100011 m
b0 9
b0 ""
b0 J
b0 ]
b0 u
b101000 P
b101000 l
b101000 p
1!
#115000
0!
#120000
b1111 U
b1111 X
b1111 I
b1111 \
b1111 f
b1111 v
b0 R
b0 k
b1 D
b1 d
1L
1H
b111 M
b111 [
b111 c
0F
0G
b1111 S
b1111 Z
b1111 e
b1111 n
b110011 i
b0 `
b110011 ^
b10000 s
b1010 r
b1101 q
b0 T
b0 W
b1111 V
b1111 t
b101001101000100000110011 Q
b101001101000100000110011 a
b101001101000100000110011 j
b101001101000100000110011 m
b101100 P
b101100 l
b101100 p
1!
#125000
0!
#130000
b11110 V
b11110 t
b11110 S
b11110 Z
b11110 e
b11110 n
b11110 U
b11110 X
b11110 I
b11110 \
b11110 f
b11110 v
b1010 s
b1011 r
b101101101000010100110011 Q
b101101101000010100110011 a
b101101101000010100110011 j
b101101101000010100110011 m
b1111 :
b1111 !"
b110000 P
b110000 l
b110000 p
1!
#135000
0!
#140000
b1111 V
b1111 t
b1111 S
b1111 Z
b1111 e
b1111 n
b1111 U
b1111 X
b1111 I
b1111 \
b1111 f
b1111 v
b1011 s
b10000 r
b11110 @
b11110 y
b1000001101000010110110011 Q
b1000001101000010110110011 a
b1000001101000010110110011 j
b1000001101000010110110011 m
b110100 P
b110100 l
b110100 p
1!
#145000
0!
#150000
1N
b11000 S
b11000 Z
b11000 e
b11000 n
b11111111111111111111111111100000 U
b11111111111111111111111111100000 X
b111000 T
b111000 W
b111100 V
b111100 t
b11111111111111111111111111100000 R
b11111111111111111111111111100000 k
b0 I
b0 \
b0 f
b0 v
b0 M
b0 [
b0 c
1F
1G
b0 D
b0 d
0L
0H
b1100011 i
b1111111 _
b1100011 ^
b1 s
b1101 r
b11111110110101101000000011100011 Q
b11111110110101101000000011100011 a
b11111110110101101000000011100011 j
b11111110110101101000000011100011 m
b1111 ?
b1111 z
b111000 P
b111000 l
b111000 p
1!
#155000
0!
#160000
b111000 U
b111000 X
0N
b111000 R
b111000 k
b1 M
b1 [
b1 c
1F
1G
b1010000 S
b1010000 Z
b1010000 e
b1010000 n
b1 `
b1 _
b11000 s
b1100 q
b11000 T
b11000 W
b11100 V
b11100 t
b10110101100001110001100011 Q
b10110101100001110001100011 a
b10110101100001110001100011 j
b10110101100001110001100011 m
b11000 P
b11000 l
b11000 p
1!
#165000
0!
#170000
b0 K
b0 g
b1111 U
b1111 X
b1111 I
b1111 \
b1111 f
b1111 v
b11110 J
b11110 ]
b11110 u
b0 R
b0 k
b111 O
b111 Y
b111 b
b1 D
b1 d
1L
1H
b111 M
b111 [
b111 c
0F
0G
b1111 S
b1111 Z
b1111 e
b1111 n
b110011 i
b0 `
b100000 _
b110011 ^
b10001 s
b1011 r
b1010 q
b11110 T
b11110 W
b1111 V
b1111 t
b1000000101101010000100010110011 Q
b1000000101101010000100010110011 a
b1000000101101010000100010110011 j
b1000000101101010000100010110011 m
b11100 P
b11100 l
b11100 p
1!
#175000
0!
#180000
b11111 U
b11111 X
b1111 T
b1111 W
b0 V
b0 t
b11111 I
b11111 \
b11111 f
b11111 v
b1111 J
b1111 ]
b1111 u
b0 S
b0 Z
b0 e
b0 n
b1 D
b1 d
1L
1H
b11 O
b11 Y
b11 b
b101 `
b0 _
b1111 r
b10001 q
b1111 9
b1111 ""
b111110001101100010110011 Q
b111110001101100010110011 a
b111110001101100010110011 j
b111110001101100010110011 m
b100000 P
b100000 l
b100000 p
1!
#185000
0!
#190000
b1 U
b1 X
b1 V
b1 t
b1 I
b1 \
b1 f
b1 v
b0 T
b0 W
b1 S
b1 Z
b1 e
b1 n
b1 D
b1 d
1L
1H
b10 O
b10 Y
b10 b
b100 `
b1110 r
b111010001100100010110011 Q
b111010001100100010110011 a
b111010001100100010110011 j
b111010001100100010110011 m
b0 9
b0 ""
b0 J
b0 ]
b0 u
b100100 P
b100100 l
b100100 p
1!
#195000
0!
#200000
1N
b111100 S
b111100 Z
b111100 e
b111100 n
b10100 U
b10100 X
b101100 V
b101100 t
b10100 R
b10100 k
b0 I
b0 \
b0 f
b0 v
b101000 T
b101000 W
b1 M
b1 [
b1 c
1F
1G
b0 D
b0 d
0L
0H
b0 O
b0 Y
b0 b
b1100011 i
b1 `
b1100011 ^
b10100 s
b1101 r
b1 9
b1 ""
b1 J
b1 ]
b1 u
b110110001001101001100011 Q
b110110001001101001100011 a
b110110001001101001100011 j
b110110001001101001100011 m
b101000 P
b101000 l
b101000 p
1!
#205000
0!
#210000
b1100 U
b1100 X
b1111 J
b1111 ]
b1111 u
b1100 R
b1100 k
b1001000 S
b1001000 Z
b1001000 e
b1001000 n
b1100 s
b1011 q
b111100 T
b111100 W
b1000000 V
b1000000 t
b110101011001011001100011 Q
b110101011001011001100011 a
b110101011001011001100011 j
b110101011001011001100011 m
b111100 P
b111100 l
b111100 p
1!
#215000
0!
#220000
0N
b1111 U
b1111 X
b1111 I
b1111 \
b1111 f
b1111 v
b11110 J
b11110 ]
b11110 u
b0 R
b0 k
b111 O
b111 Y
b111 b
b1 D
b1 d
1L
1H
b111 M
b111 [
b111 c
0F
0G
b1111 S
b1111 Z
b1111 e
b1111 n
b110011 i
b0 `
b100000 _
b110011 ^
b1010 s
b1011 r
b1010 q
b11110 T
b11110 W
b1111 V
b1111 t
b1000000101101010000010100110011 Q
b1000000101101010000010100110011 a
b1000000101101010000010100110011 j
b1000000101101010000010100110011 m
b1001000 P
b1001000 l
b1001000 p
1!
#225000
0!
#230000
1N
b11111111111111111111111111001100 U
b11111111111111111111111111001100 X
b1010000 V
b1010000 t
b11111111111111111111111111001100 R
b11111111111111111111111111001100 k
b0 I
b0 \
b0 f
b0 v
b1001100 T
b1001100 W
b11000 S
b11000 Z
b11000 e
b11000 n
b0 M
b0 [
b0 c
1F
1G
b0 D
b0 d
0L
0H
b0 O
b0 Y
b0 b
b1100011 i
b1111110 _
b1100011 ^
b1101 s
b1101 r
b1101 q
b11111100110101101000011011100011 Q
b11111100110101101000011011100011 a
b11111100110101101000011011100011 j
b11111100110101101000011011100011 m
b1111 @
b1111 y
b0 J
b0 ]
b0 u
b1001100 P
b1001100 l
b1001100 p
1!
#235000
0!
#240000
b111000 U
b111000 X
0N
b111000 R
b111000 k
b1 M
b1 [
b1 c
1F
1G
b1010000 S
b1010000 Z
b1010000 e
b1010000 n
b1 `
b1 _
b11000 s
b1100 q
b11000 T
b11000 W
b11100 V
b11100 t
b10110101100001110001100011 Q
b10110101100001110001100011 a
b10110101100001110001100011 j
b10110101100001110001100011 m
b11000 P
b11000 l
b11000 p
1!
#245000
0!
#250000
b0 K
b0 g
b1111 U
b1111 X
b1111 I
b1111 \
b1111 f
b1111 v
b1111 J
b1111 ]
b1111 u
b0 R
b0 k
b111 O
b111 Y
b111 b
b1 D
b1 d
1L
1H
b111 M
b111 [
b111 c
0F
0G
b0 S
b0 Z
b0 e
b0 n
b110011 i
b0 `
b100000 _
b110011 ^
b10001 s
b1011 r
b1010 q
b1111 T
b1111 W
b0 V
b0 t
b1000000101101010000100010110011 Q
b1000000101101010000100010110011 a
b1000000101101010000100010110011 j
b1000000101101010000100010110011 m
b11100 P
b11100 l
b11100 p
1!
#255000
0!
#260000
b11111 U
b11111 X
b0 T
b0 W
b11111 I
b11111 \
b11111 f
b11111 v
b0 J
b0 ]
b0 u
b1 D
b1 d
1L
1H
b11 O
b11 Y
b11 b
b101 `
b0 _
b1111 r
b10001 q
b0 9
b0 ""
b111110001101100010110011 Q
b111110001101100010110011 a
b111110001101100010110011 j
b111110001101100010110011 m
b100000 P
b100000 l
b100000 p
1!
#265000
0!
#270000
b1 U
b1 X
b1 V
b1 t
b1 I
b1 \
b1 f
b1 v
b1 S
b1 Z
b1 e
b1 n
b1 D
b1 d
1L
1H
b10 O
b10 Y
b10 b
b100 `
b1110 r
b111010001100100010110011 Q
b111010001100100010110011 a
b111010001100100010110011 j
b111010001100100010110011 m
b100100 P
b100100 l
b100100 p
1!
#275000
0!
#280000
1N
b111100 S
b111100 Z
b111100 e
b111100 n
b10100 U
b10100 X
b101100 V
b101100 t
b10100 R
b10100 k
b0 I
b0 \
b0 f
b0 v
b101000 T
b101000 W
b1 M
b1 [
b1 c
1F
1G
b0 D
b0 d
0L
0H
b0 O
b0 Y
b0 b
b1100011 i
b1 `
b1100011 ^
b10100 s
b1101 r
b1 9
b1 ""
b1 J
b1 ]
b1 u
b110110001001101001100011 Q
b110110001001101001100011 a
b110110001001101001100011 j
b110110001001101001100011 m
b101000 P
b101000 l
b101000 p
1!
#285000
0!
#290000
b1100 U
b1100 X
b1111 J
b1111 ]
b1111 u
b1100 R
b1100 k
b1001000 S
b1001000 Z
b1001000 e
b1001000 n
b1100 s
b1011 q
b111100 T
b111100 W
b1000000 V
b1000000 t
b110101011001011001100011 Q
b110101011001011001100011 a
b110101011001011001100011 j
b110101011001011001100011 m
b111100 P
b111100 l
b111100 p
1!
#295000
0!
#300000
0N
b1111 U
b1111 X
b1111 I
b1111 \
b1111 f
b1111 v
b0 R
b0 k
b111 O
b111 Y
b111 b
b1 D
b1 d
1L
1H
b111 M
b111 [
b111 c
0F
0G
b0 S
b0 Z
b0 e
b0 n
b110011 i
b0 `
b100000 _
b110011 ^
b1010 s
b1011 r
b1010 q
b1111 T
b1111 W
b0 V
b0 t
b1000000101101010000010100110011 Q
b1000000101101010000010100110011 a
b1000000101101010000010100110011 j
b1000000101101010000010100110011 m
b1001000 P
b1001000 l
b1001000 p
1!
#305000
0!
#310000
1N
b11111111111111111111111111001100 U
b11111111111111111111111111001100 X
b1010000 V
b1010000 t
b11111111111111111111111111001100 R
b11111111111111111111111111001100 k
b0 I
b0 \
b0 f
b0 v
b1001100 T
b1001100 W
b11000 S
b11000 Z
b11000 e
b11000 n
b0 M
b0 [
b0 c
1F
1G
b0 D
b0 d
0L
0H
b0 O
b0 Y
b0 b
b1100011 i
b1111110 _
b1100011 ^
b1101 s
b1101 r
b1101 q
b11111100110101101000011011100011 Q
b11111100110101101000011011100011 a
b11111100110101101000011011100011 j
b11111100110101101000011011100011 m
b0 @
b0 y
b0 J
b0 ]
b0 u
b1001100 P
b1001100 l
b1001100 p
1!
#315000
0!
#320000
b111000 U
b111000 X
0N
b111000 R
b111000 k
b1 M
b1 [
b1 c
1F
1G
b1010000 S
b1010000 Z
b1010000 e
b1010000 n
b1 `
b1 _
b11000 s
b1100 q
b11000 T
b11000 W
b11100 V
b11100 t
b10110101100001110001100011 Q
b10110101100001110001100011 a
b10110101100001110001100011 j
b10110101100001110001100011 m
b11000 P
b11000 l
b11000 p
1!
#325000
0!
#330000
bx K
bx g
b1111 U
b1111 X
b1111 I
b1111 \
b1111 f
b1111 v
b0 R
b0 k
b111 O
b111 Y
b111 b
b1 D
b1 d
1L
1H
b111 M
b111 [
b111 c
0F
0G
b11111111111111111111111111110001 S
b11111111111111111111111111110001 Z
b11111111111111111111111111110001 e
b11111111111111111111111111110001 n
b110011 i
b0 `
b100000 _
b110011 ^
b10001 s
b1011 r
b1010 q
b0 T
b0 W
b11111111111111111111111111110001 V
b11111111111111111111111111110001 t
b1000000101101010000100010110011 Q
b1000000101101010000100010110011 a
b1000000101101010000100010110011 j
b1000000101101010000100010110011 m
b11100 P
b11100 l
b11100 p
1!
#335000
0!
#340000
b11111 U
b11111 X
b11111111111111111111111111110001 T
b11111111111111111111111111110001 W
b1 V
b1 t
b0 K
b0 g
b11111 I
b11111 \
b11111 f
b11111 v
b11111111111111111111111111110001 J
b11111111111111111111111111110001 ]
b11111111111111111111111111110001 u
b1 S
b1 Z
b1 e
b1 n
b1 D
b1 d
1L
1H
b11 O
b11 Y
b11 b
b101 `
b0 _
b1111 r
b10001 q
b11111111111111111111111111110001 9
b11111111111111111111111111110001 ""
b111110001101100010110011 Q
b111110001101100010110011 a
b111110001101100010110011 j
b111110001101100010110011 m
b100000 P
b100000 l
b100000 p
1!
#345000
0!
#350000
b1 U
b1 X
b0 V
b0 t
b0 K
b0 g
b1 I
b1 \
b1 f
b1 v
b1 T
b1 W
b0 S
b0 Z
b0 e
b0 n
b1 D
b1 d
1L
1H
b10 O
b10 Y
b10 b
b100 `
b1110 r
b111010001100100010110011 Q
b111010001100100010110011 a
b111010001100100010110011 j
b111010001100100010110011 m
b1 9
b1 ""
b1 J
b1 ]
b1 u
b100100 P
b100100 l
b100100 p
1!
#355000
0!
#360000
0N
b10100 U
b10100 X
b101100 V
b101100 t
b10100 R
b10100 k
b0 I
b0 \
b0 f
b0 v
b101000 T
b101000 W
b111100 S
b111100 Z
b111100 e
b111100 n
b1 M
b1 [
b1 c
1F
1G
b0 D
b0 d
0L
0H
b0 O
b0 Y
b0 b
b1100011 i
b1 `
b1100011 ^
b10100 s
b1101 r
b0 9
b0 ""
b0 J
b0 ]
b0 u
b110110001001101001100011 Q
b110110001001101001100011 a
b110110001001101001100011 j
b110110001001101001100011 m
b101000 P
b101000 l
b101000 p
1!
#365000
0!
#370000
b0 U
b0 X
b0 R
b0 k
b1 D
b1 d
1L
1H
b111 M
b111 [
b111 c
0F
0G
b0 S
b0 Z
b0 e
b0 n
b110011 i
b0 `
b110011 ^
b10000 s
b1010 r
b1101 q
b0 T
b0 W
b0 V
b0 t
b101001101000100000110011 Q
b101001101000100000110011 a
b101001101000100000110011 j
b101001101000100000110011 m
b101100 P
b101100 l
b101100 p
1!
#375000
0!
#380000
b1111 V
b1111 t
b1111 S
b1111 Z
b1111 e
b1111 n
b1111 U
b1111 X
b1111 I
b1111 \
b1111 f
b1111 v
b1010 s
b1011 r
b0 :
b0 !"
b101101101000010100110011 Q
b101101101000010100110011 a
b101101101000010100110011 j
b101101101000010100110011 m
b110000 P
b110000 l
b110000 p
1!
#385000
0!
#390000
b0 V
b0 t
b0 S
b0 Z
b0 e
b0 n
b0 U
b0 X
b0 I
b0 \
b0 f
b0 v
b1011 s
b10000 r
b1000001101000010110110011 Q
b1000001101000010110110011 a
b1000001101000010110110011 j
b1000001101000010110110011 m
b1111 @
b1111 y
b110100 P
b110100 l
b110100 p
1!
#395000
0!
#400000
b11111111111111111111111111100000 U
b11111111111111111111111111100000 X
b11000 S
b11000 Z
b11000 e
b11000 n
1N
b111000 T
b111000 W
b111100 V
b111100 t
b11111111111111111111111111100000 R
b11111111111111111111111111100000 k
b0 M
b0 [
b0 c
1F
1G
b0 D
b0 d
0L
0H
b1100011 i
b1111111 _
b1100011 ^
b1 s
b1101 r
b0 ?
b0 z
b11111110110101101000000011100011 Q
b11111110110101101000000011100011 a
b11111110110101101000000011100011 j
b11111110110101101000000011100011 m
b111000 P
b111000 l
b111000 p
1!
#405000
0!
#410000
b111000 U
b111000 X
0N
b111000 R
b111000 k
b1 M
b1 [
b1 c
1F
1G
b1010000 S
b1010000 Z
b1010000 e
b1010000 n
b1 `
b1 _
b11000 s
b1100 q
b11000 T
b11000 W
b11100 V
b11100 t
b10110101100001110001100011 Q
b10110101100001110001100011 a
b10110101100001110001100011 j
b10110101100001110001100011 m
b11000 P
b11000 l
b11000 p
1!
#415000
0!
#420000
b0 K
b0 g
b0 U
b0 X
b1111 J
b1111 ]
b1111 u
b0 R
b0 k
b111 O
b111 Y
b111 b
b1 D
b1 d
1L
1H
b111 M
b111 [
b111 c
0F
0G
b1111 S
b1111 Z
b1111 e
b1111 n
b110011 i
b0 `
b100000 _
b110011 ^
b10001 s
b1011 r
b1010 q
b1111 T
b1111 W
b1111 V
b1111 t
b1000000101101010000100010110011 Q
b1000000101101010000100010110011 a
b1000000101101010000100010110011 j
b1000000101101010000100010110011 m
b11100 P
b11100 l
b11100 p
1!
#425000
0!
#430000
b0 V
b0 t
b0 S
b0 Z
b0 e
b0 n
b11111 U
b11111 X
b11111 I
b11111 \
b11111 f
b11111 v
b1 D
b1 d
1L
1H
b11 O
b11 Y
b11 b
b101 `
b0 _
b1111 r
b10001 q
b111110001101100010110011 Q
b111110001101100010110011 a
b111110001101100010110011 j
b111110001101100010110011 m
b1111 9
b1111 ""
b100000 P
b100000 l
b100000 p
1!
#435000
0!
#440000
b1 U
b1 X
b1 V
b1 t
b1 I
b1 \
b1 f
b1 v
b0 T
b0 W
b1 S
b1 Z
b1 e
b1 n
b1 D
b1 d
1L
1H
b10 O
b10 Y
b10 b
b100 `
b1110 r
b0 9
b0 ""
b0 J
b0 ]
b0 u
b111010001100100010110011 Q
b111010001100100010110011 a
b111010001100100010110011 j
b111010001100100010110011 m
b100100 P
b100100 l
b100100 p
1!
#445000
0!
